{"page":1,"total_results":19781,"total_pages":990,"results":[{"vote_count":2193,"id":346364,"video":false,"vote_average":7.4,"title":"Ça","popularity":787.171342,"poster_path":"\/3SUz0F0I2Bodcj9Ev2pYSWnE9zp.jpg","original_language":"en","original_title":"It","genre_ids":[12,18,27],"backdrop_path":"\/tcheoA2nPATCm2vvXw2hVQoaEFD.jpg","adult":false,"overview":"À Derry, dans le Maine, sept gamins ayant du mal à s'intégrer se sont regroupés au sein du \"Club des Ratés\". Rejetés par leurs camarades, ils sont les cibles favorites des gros durs de l'école. Ils ont aussi en commun d'avoir éprouvé leur plus grande terreur face à un terrible prédateur métamorphe qu'ils appellent \"Ça\"…","release_date":"2017-09-05"},{"vote_count":4733,"id":211672,"video":false,"vote_average":6.4,"title":"Les Minions","popularity":570.597274,"poster_path":"\/sGuZHYvu0mXeQCwvJ5yzk2Yoytq.jpg","original_language":"en","original_title":"Minions","genre_ids":[10751,16,12,35],"backdrop_path":"\/uX7LXnsC7bZJZjn048UCOwkPXWJ.jpg","adult":false,"overview":"À la nuit des temps des temps. À l'origine, de simples organismes monocellulaires de couleur jaune, les Minions ont évolué au cours des âges au service de maîtres plus abjects les uns que les autres. Les disparitions répétitives de ceux-ci, des tyrannosaures à Napoléon, ont plongé nos mignons personnages dans une profonde dépression. Mais l'un d'eux, prénommé Kevin, a une idée. Flanqué de Stuart, l'adolescent rebelle et de l'adorable petit Bob, Kevin part à la recherche d'un nouveau patron malfaisant pour guider les siens. Nos trois Minions se lancent dans un palpitant voyage qui va les conduire à leur nouveau maître... qui s'avère être une maîtresse : Scarlet Overkill, la première super-vilaine de l'histoire. De l'Antarctique au New York des années 60, nos trois compères arrivent finalement à Londres, à l'apogée des mods, où ils vont devoir faire face à la plus terrible menace de leur existence : l'annihilation de leur espèce.","release_date":"2015-06-17"},{"vote_count":972,"id":335984,"video":false,"vote_average":7.7,"title":"Blade Runner 2049","popularity":444.770778,"poster_path":"\/aMpyrCizvSdc0UIMblJ1srVgAEF.jpg","original_language":"en","original_title":"Blade Runner 2049","genre_ids":[28,9648,878,53],"backdrop_path":"\/mVr0UiqyltcfqxbAUcLl9zWL8ah.jpg","adult":false,"overview":"En 2049, la société est fragilisée par les nombreuses tensions entre les humains et leurs esclaves créés par bioingénierie. L’officier K est un Blade Runner : il fait partie d’une force d’intervention d’élite chargée de trouver et d’éliminer ceux qui n’obéissent pas aux ordres des humains. Lorsqu’il découvre un secret enfoui depuis longtemps et capable de changer le monde, les plus hautes instances décident que c’est à son tour d’être traqué et éliminé. Son seul espoir est de retrouver Rick Deckard, un ancien Blade Runner qui a disparu depuis des décennies...","release_date":"2017-10-04"},{"vote_count":3921,"id":315635,"video":false,"vote_average":7.3,"title":"Spider-Man: Homecoming","popularity":350.15786,"poster_path":"\/zEKA37RQvvEKrbzKlvpG99gBPRD.jpg","original_language":"en","original_title":"Spider-Man: Homecoming","genre_ids":[28,12,35,878],"backdrop_path":"\/vc8bCGjdVp0UbMNLzHnHSLRbBWQ.jpg","adult":false,"overview":"Après ses spectaculaires débuts dans Captain America : Civil War, le jeune Peter Parker découvre peu à peu sa nouvelle identité, celle de Spider-Man, le super-héros lanceur de toile. Galvanisé par son expérience avec les Avengers, Peter rentre chez lui auprès de sa tante May, sous l’œil attentif de son nouveau mentor, Tony Stark. Il s’efforce de reprendre sa vie d’avant, mais au fond de lui, Peter rêve de se prouver qu’il est plus que le sympathique super héros du quartier. L’apparition d’un nouvel ennemi, le Vautour, va mettre en danger tout ce qui compte pour lui...","release_date":"2017-07-05"},{"vote_count":5579,"id":321612,"video":false,"vote_average":6.8,"title":"La Belle et la Bête","popularity":296.938378,"poster_path":"\/4RJaj2C4EZn1rCCTMwWGgv9ARUC.jpg","original_language":"en","original_title":"Beauty and the Beast","genre_ids":[10751,14,10749],"backdrop_path":"\/6aUWe0GSl69wMTSWWexsorMIvwU.jpg","adult":false,"overview":"Une nouvelle adaptation live du conte \"La Belle et la Bête\".  Belle, jeune fille rêveuse et passionnée de littérature, vit avec son père, un vieil inventeur farfelu. S'étant perdu une nuit dans la fôret, ce dernier se réfugie au château de la Bête, qui la jette au cachot. Ne pouvant supporter de voir son père emprisonné, Belle accepte alors de prendre sa place, ignorant que sous le masque du monstre se cache un Prince Charmant tremblant d'amour pour elle, mais victime d'une terrible malédiction.","release_date":"2017-03-16"},{"vote_count":1843,"id":281338,"video":false,"vote_average":6.7,"title":"La Planète des Singes - Suprématie","popularity":296.914104,"poster_path":"\/4Ar01t6sW1ZZBcbz2R1wqjzIBdr.jpg","original_language":"en","original_title":"War for the Planet of the Apes","genre_ids":[18,878,10752],"backdrop_path":"\/ulMscezy9YX0bhknvJbZoUgQxO5.jpg","adult":false,"overview":"César et les Singes sont contraints de mener un combat dont ils ne veulent pas contre une armée d'Humains dirigée par un Colonel impitoyable. Les Singes connaissent des pertes considérables et César, dans sa quête de vengeance, va devoir lutter contre ses instincts les plus noirs. Au terme d’un périple qui le conduira à un face à face avec le Colonel, les Singes et les Humains vont se livrer une guerre sans merci à l’issue de laquelle une seule des deux espèces survivra - et dominera la planète.","release_date":"2017-07-11"},{"vote_count":755,"id":343668,"video":false,"vote_average":7.3,"title":"Kingsman : Le Cercle d'or","popularity":273.226629,"poster_path":"\/h3V2b7wSwJgLm0ncgJgljtPS8iV.jpg","original_language":"en","original_title":"Kingsman: The Golden Circle","genre_ids":[28,12,35],"backdrop_path":"\/uExPmkOHJySrbJyJDJylHDqaT58.jpg","adult":false,"overview":"Kingsman, l’élite du renseignement britannique en costume trois pièces, fait face à une menace sans précédent. Alors qu’une bombe s’abat et détruit leur quartier général, les agents font la découverte d’une puissante organisation alliée nommée Statesman, fondée il y a bien longtemps aux Etats-Unis. Face à cet ultime danger, les deux services d’élite n’auront d’autre choix que de réunir leurs forces pour sauver le monde des griffes d’un impitoyable ennemi, qui ne reculera devant rien dans sa quête destructrice.","release_date":"2017-09-20"},{"vote_count":6283,"id":177572,"video":false,"vote_average":7.8,"title":"Les Nouveaux Héros","popularity":261.681327,"poster_path":"\/7jAXeNgTPUY00txdsc5JloGCMBN.jpg","original_language":"en","original_title":"Big Hero 6","genre_ids":[12,10751,16,28,35],"backdrop_path":"\/2BXd0t9JdVqCp9sKf6kzMkr7QjB.jpg","adult":false,"overview":"Un génie de la robotique nommé Hiro Hamada, se retrouve embarqué dans un complot criminel qui menace de détruire la paisible ville high-tech de San Fransokyo. Avec l’aide d’un de ses plus proche compagnon – un robot nommé Baymax –, Hiro s’associe à une équipe de jeunes amateurs qui s’est donnée pour mission de sauver la population.","release_date":"2014-10-24"},{"vote_count":486,"id":381283,"video":false,"vote_average":6.9,"title":"mother!","popularity":260.173352,"poster_path":"\/qKOPbCJXhlBfIEAmeCTnQ42OhiX.jpg","original_language":"en","original_title":"mother!","genre_ids":[18,27],"backdrop_path":"\/uuQpQ8VDOtVL2IO4y2pR58odkS5.jpg","adult":false,"overview":"La relation d'un couple est mise en péril quand l'arrivée d'invités inattendus viennent perturber leur quotidien.","release_date":"2017-09-13"},{"vote_count":5171,"id":297762,"video":false,"vote_average":7.2,"title":"Wonder Woman","popularity":225.99233,"poster_path":"\/lO1vEquZSWT9aF2Ij2OZaXKSwUh.jpg","original_language":"en","original_title":"Wonder Woman","genre_ids":[28,12,14],"backdrop_path":"\/6iUNJZymJBMXXriQyFZfLAKnjO6.jpg","adult":false,"overview":"Avant d'être Wonder Woman, elle s'appelait Diana, princesse des Amazones, entraînée pour être une guerrière impossible à conquérir. Elle est élevée sur une île isolée et paradisiaque, mais lorsqu'un pilote américain s'écrase sur leur rivage et annonce qu'un conflit à grande échelle fait rage dans le monde, Diana quitte son foyer, convaincue qu'elle doit arrêter cette menace. Combattant aux côtés de cet homme et des siens pour mettre fin à cette guerre et à toutes les guerres, Diana découvre ses vrais pouvoirs... Et son véritable destin.","release_date":"2017-05-30"},{"vote_count":5542,"id":245891,"video":false,"vote_average":7,"title":"John Wick","popularity":216.678228,"poster_path":"\/tyPtD94Gx1JFkWgGO3nrmv1GmpL.jpg","original_language":"en","original_title":"John Wick","genre_ids":[28,53],"backdrop_path":"\/mFb0ygcue4ITixDkdr7wm1Tdarx.jpg","adult":false,"overview":"Depuis la mort de sa femme bien-aimée, John Wick passe ses journées à retaper sa Ford Mustang de 1969, avec pour seule compagnie sa chienne Daisy. Il mène une vie sans histoire, jusqu’à ce qu’un malfrat sadique nommé Iosef Tarasof remarque sa voiture. John refuse de la lui vendre. Iosef n’acceptant pas qu’on lui résiste, s’introduit chez John avec deux complices pour voler la Mustang, et tuer sauvagement Daisy…  John remonte la piste de Iosef jusqu’à New York. Un ancien contact, Aurelio, lui apprend que le malfrat est le fils unique d’un grand patron de la pègre, Viggo Tarasof. La rumeur se répand rapidement dans le milieu : le légendaire tueur cherche Iosef. Viggo met à prix la tête de John : quiconque l’abattra touchera une énorme récompense. John a désormais tous les assassins de New York aux trousses.","release_date":"2014-10-22"},{"vote_count":6005,"id":210577,"video":false,"vote_average":7.9,"title":"Gone Girl","popularity":213.203866,"poster_path":"\/5nWdSIGKyjS2KDK4sJ8k3z8U3lS.jpg","original_language":"en","original_title":"Gone Girl","genre_ids":[9648,53,18],"backdrop_path":"\/bt6DhdALyhf90gReozoQ0y3R3vZ.jpg","adult":false,"overview":"Amy et Nick forment en apparence un couple modèle. Victimes de la crise, ils quittent Manhattan pour retourner s’installer dans la ville du Missouri où Nick a grandi. Mais le jour de leur 5ème anniversaire de mariage, Amy disparaît et Nick retrouve leur maison saccagée. Lors de l’enquête tout semble accuser Nick. Celui-ci décide, de son côté, de tout faire pour savoir ce qui est arrivé à Amy et découvre qu’elle lui dissimulait beaucoup de choses.","release_date":"2014-10-01"},{"vote_count":12198,"id":19995,"video":false,"vote_average":7.2,"title":"Avatar","popularity":202.148169,"poster_path":"\/kXlrGioGfFKOvibpsPzzGx16cP2.jpg","original_language":"en","original_title":"Avatar","genre_ids":[28,12,14,878],"backdrop_path":"\/5XPPB44RQGfkBrbJxmtdndKz05n.jpg","adult":false,"overview":"Malgré sa paralysie, Jake Sully, un ancien marine immobilisé dans un fauteuil roulant, est resté un combattant au plus profond de son être. Il est recruté pour se rendre à des années-lumière de la Terre, sur Pandora, où de puissants groupes industriels exploitent un minerai rarissime destiné à résoudre la crise énergétique sur Terre. Parce que l'atmosphère de Pandora est toxique pour les humains, ceux-ci ont créé le Programme Avatar, qui permet à des \"pilotes\" humains de lier leur esprit à un avatar, un corps biologique commandé à distance, capable de survivre dans cette atmosphère létale. Ces avatars sont des hybrides créés génétiquement en croisant l'ADN humain avec celui des Na'vi, les autochtones de Pandora.","release_date":"2009-12-10"},{"vote_count":5809,"id":131631,"video":false,"vote_average":6.6,"title":"Hunger Games : La Révolte, 1ère partie","popularity":194.55146,"poster_path":"\/np8WOiNhpG7aZCuxD2TkrVis7j0.jpg","original_language":"en","original_title":"The Hunger Games: Mockingjay - Part 1","genre_ids":[878,12,53],"backdrop_path":"\/4PwyB0ErucIANzW24Kori71J6gU.jpg","adult":false,"overview":"Katniss Everdeen s’est réfugiée dans le District 13 après avoir détruit à jamais l’arène et les Jeux. Sous le commandement de la Présidente Coin, chef du district, et suivant les conseils de ses amis en qui elle a toute confiance, Katniss déploie ses ailes pour devenir le symbole de la rébellion. Elle va se battre pour sauver Peeta et libérer le pays tout entier, à qui son courage a redonné espoir.","release_date":"2014-11-18"},{"vote_count":2217,"id":339403,"video":false,"vote_average":7.2,"title":"Baby Driver","popularity":185.815908,"poster_path":"\/oTsgNy2XsO50PhpB8u5RRusfkjV.jpg","original_language":"en","original_title":"Baby Driver","genre_ids":[28,80],"backdrop_path":"\/goCvLSUFz0p7k8R10Hv4CVh3EQv.jpg","adult":false,"overview":"Chauffeur pour des braqueurs de banque, Baby ne compte que sur lui-même pour être le meilleur dans sa partie. Lorsqu’il rencontre la fille de ses rêves, il cherche à mettre fin à ses activités criminelles pour revenir dans le droit chemin. Mais il est forcé de travailler pour un grand patron du crime et le braquage tourne mal… Désormais, sa liberté, son avenir avec la fille qu’il aime et sa vie sont en jeu…","release_date":"2017-06-28"},{"vote_count":11545,"id":293660,"video":false,"vote_average":7.4,"title":"Deadpool","popularity":185.306061,"poster_path":"\/nsHOWVQcinAWRtGeIbfZJCTDoNX.jpg","original_language":"en","original_title":"Deadpool","genre_ids":[28,12,35],"backdrop_path":"\/n1y094tVDFATSzkTnFxoGZ1qNsG.jpg","adult":false,"overview":"Deadpool, est l'anti-héros le plus atypique de l'univers Marvel. À l'origine, il s'appelle Wade Wilson : un ancien militaire des Forces Spéciales devenu mercenaire. Après avoir subi une expérimentation hors norme qui va accélérer ses pouvoirs de guérison, il va devenir Deadpool. Armé de ses nouvelles capacités et d'un humour noir survolté, Deadpool va traquer l'homme qui a bien failli anéantir sa vie.","release_date":"2016-02-09"},{"vote_count":8760,"id":680,"video":false,"vote_average":8.3,"title":"Pulp Fiction","popularity":176.440369,"poster_path":"\/7p8x4U3o3p1JZMBqNY3zAlobY3m.jpg","original_language":"en","original_title":"Pulp Fiction","genre_ids":[53,80],"backdrop_path":"\/9rZg1J6vMQoDVSgRyWcpJa8IAGy.jpg","adult":false,"overview":"L'odyssée sanglante et burlesque de petits malfrats dans la jungle d'Hollywood : deux petits tueurs, un dangereux gangster marié à une camée, un boxeur roublard, des prêteurs sur gages sadiques, un caïd élégant et dévoué, un dealer bon mari et de deux tourtereaux à la gâchette facile.","release_date":"1994-09-10"},{"vote_count":4877,"id":283995,"video":false,"vote_average":7.6,"title":"Les Gardiens de la Galaxie Vol. 2","popularity":171.496992,"poster_path":"\/8Xo5iajzeK1PYeidHK2PPsgli2x.jpg","original_language":"en","original_title":"Guardians of the Galaxy Vol. 2","genre_ids":[28,12,35,878],"backdrop_path":"\/aJn9XeesqsrSLKcHfHP4u5985hn.jpg","adult":false,"overview":"Avec en toile de fond l’Awesome Mixtape #2, Les Gardiens de la Galaxie Vol. 2 poursuit les aventures de l’équipe alors qu’ils traversent les confins du cosmos. Les Gardiens doivent se battre pour que leur nouvelle famille reste ensemble tandis qu’ils cherchent à percer le mystère de la véritable filiation de Star-Lord. De vieux ennemis deviennent de nouveaux alliés et des personnages appréciés des fans, issus des comics, viennent en aide à nos héros alors que l’Univers Cinématographique Marvel continue de se développer.","release_date":"2017-04-19"},{"vote_count":2886,"id":166426,"video":false,"vote_average":6.6,"title":"Pirates des Caraïbes: La Vengeance de Salazar","popularity":167.566733,"poster_path":"\/fVMudKQfhosujwgAKhfxNGfS9sL.jpg","original_language":"en","original_title":"Pirates of the Caribbean: Dead Men Tell No Tales","genre_ids":[12,28,14,35],"backdrop_path":"\/2Qwb7EayKsD2cuB3I2u2k2VU3Lb.jpg","adult":false,"overview":"Jack Sparrow et ses compagnons se lancent dans la quête du Trident de Poséidon, sur lequel le Capitaine Teague détient des informations précieuses. Cet artefact légendaire, qui donne tous les pouvoirs sur les océans, est leur seul moyen d'échapper aux fantômes du redoutable Capitaine Salazar, échappés du Triangle des Bermudes pour éliminer tous les pirates des océans.","release_date":"2017-05-23"},{"vote_count":7517,"id":271110,"video":false,"vote_average":7.1,"title":"Captain America : Civil War","popularity":164.482154,"poster_path":"\/fVTRND6tvfqTJSeaVGYO7YROY0T.jpg","original_language":"en","original_title":"Captain America: Civil War","genre_ids":[12,28,878],"backdrop_path":"\/m5O3SZvQ6EgD5XXXLPIP1wLppeW.jpg","adult":false,"overview":"Steve Rogers est désormais à la tête des Avengers, dont la mission est de protéger l'humanité. À la suite d'une de leurs interventions qui a causé d'importants dégâts collatéraux, le gouvernement décide de mettre en place un organisme de commandement et de supervision.  Cette nouvelle donne provoque une scission au sein de l'équipe : Steve Rogers reste attaché à sa liberté de s'engager sans ingérence gouvernementale, tandis que d'autres se rangent derrière Tony Stark, qui contre toute attente, décide de se soumettre au gouvernement...","release_date":"2016-04-27"}]}